^D:\GC2A07\C++KADAI\CPP_KADAI\課題17\CHARACTER.CPP|D:\GC2A07\C++KADAI\CPP_KADAI\課題17\ENEMY.CPP|D:\GC2A07\C++KADAI\CPP_KADAI\課題17\GAME.CPP|D:\GC2A07\C++KADAI\CPP_KADAI\課題17\MAIN.CPP|D:\GC2A07\C++KADAI\CPP_KADAI\課題17\PLAYER.CPP
D:\GC2A07\C++KADAI\CPP_KADAI\課題17\DEBUG\VC142.PDB
D:\GC2A07\C++KADAI\CPP_KADAI\課題17\DEBUG\VC142.IDB
D:\GC2A07\C++KADAI\CPP_KADAI\課題17\DEBUG\PLAYER.OBJ
D:\GC2A07\C++KADAI\CPP_KADAI\課題17\DEBUG\MAIN.OBJ
D:\GC2A07\C++KADAI\CPP_KADAI\課題17\DEBUG\GAME.OBJ
D:\GC2A07\C++KADAI\CPP_KADAI\課題17\DEBUG\ENEMY.OBJ
D:\GC2A07\C++KADAI\CPP_KADAI\課題17\DEBUG\CHARACTER.OBJ
^D:\GC2A07\C++KADAI\CPP_KADAI\課題17\CHARACTER.CPP
D:\GC2A07\C++KADAI\CPP_KADAI\課題17\DEBUG\VC142.PDB
^D:\GC2A07\C++KADAI\CPP_KADAI\課題17\ENEMY.CPP
D:\GC2A07\C++KADAI\CPP_KADAI\課題17\DEBUG\VC142.PDB
^D:\GC2A07\C++KADAI\CPP_KADAI\課題17\GAME.CPP
D:\GC2A07\C++KADAI\CPP_KADAI\課題17\DEBUG\VC142.PDB
^D:\GC2A07\C++KADAI\CPP_KADAI\課題17\MAIN.CPP
D:\GC2A07\C++KADAI\CPP_KADAI\課題17\DEBUG\VC142.PDB
^D:\GC2A07\C++KADAI\CPP_KADAI\課題17\PLAYER.CPP
D:\GC2A07\C++KADAI\CPP_KADAI\課題17\DEBUG\VC142.PDB
