^D:\GC2A07\C++KADAI\CPP_KADAI\課題17\DEBUG\CHARACTER.OBJ|D:\GC2A07\C++KADAI\CPP_KADAI\課題17\DEBUG\ENEMY.OBJ|D:\GC2A07\C++KADAI\CPP_KADAI\課題17\DEBUG\GAME.OBJ|D:\GC2A07\C++KADAI\CPP_KADAI\課題17\DEBUG\MAIN.OBJ|D:\GC2A07\C++KADAI\CPP_KADAI\課題17\DEBUG\PLAYER.OBJ
D:\GC2A07\C++KADAI\CPP_KADAI\DEBUG\課題17.ILK
D:\GC2A07\C++KADAI\CPP_KADAI\DEBUG\課題17.EXE
D:\GC2A07\C++KADAI\CPP_KADAI\DEBUG\課題17.PDB
