^D:\GC2A07\C++KADAI\CPP_KADAI\課題6\DEBUG\CALCLATION.OBJ|D:\GC2A07\C++KADAI\CPP_KADAI\課題6\DEBUG\MAIN.OBJ
D:\GC2A07\C++KADAI\CPP_KADAI\DEBUG\課題6.EXE
D:\GC2A07\C++KADAI\CPP_KADAI\DEBUG\課題6.ILK
D:\GC2A07\C++KADAI\CPP_KADAI\DEBUG\課題6.PDB
