^D:\GC2A07\C++KADAI\CPP_KADAI\課題11\ENEMY.CPP|D:\GC2A07\C++KADAI\CPP_KADAI\課題11\MAIN.CPP|D:\GC2A07\C++KADAI\CPP_KADAI\課題11\PLAYER.CPP
D:\GC2A07\C++KADAI\CPP_KADAI\課題11\DEBUG\VC142.PDB
D:\GC2A07\C++KADAI\CPP_KADAI\課題11\DEBUG\VC142.IDB
D:\GC2A07\C++KADAI\CPP_KADAI\課題11\DEBUG\PLAYER.OBJ
D:\GC2A07\C++KADAI\CPP_KADAI\課題11\DEBUG\MAIN.OBJ
D:\GC2A07\C++KADAI\CPP_KADAI\課題11\DEBUG\ENEMY.OBJ
^D:\GC2A07\C++KADAI\CPP_KADAI\課題11\ENEMY.CPP
D:\GC2A07\C++KADAI\CPP_KADAI\課題11\DEBUG\VC142.PDB
^D:\GC2A07\C++KADAI\CPP_KADAI\課題11\PLAYER.CPP
D:\GC2A07\C++KADAI\CPP_KADAI\課題11\DEBUG\VC142.PDB
^D:\GC2A07\C++KADAI\CPP_KADAI\課題11\GAME.CPP|D:\GC2A07\C++KADAI\CPP_KADAI\課題11\MAIN.CPP
D:\GC2A07\C++KADAI\CPP_KADAI\課題11\DEBUG\VC142.PDB
D:\GC2A07\C++KADAI\CPP_KADAI\課題11\DEBUG\VC142.IDB
D:\GC2A07\C++KADAI\CPP_KADAI\課題11\DEBUG\MAIN.OBJ
D:\GC2A07\C++KADAI\CPP_KADAI\課題11\DEBUG\GAME.OBJ
^D:\GC2A07\C++KADAI\CPP_KADAI\課題11\GAME.CPP
D:\GC2A07\C++KADAI\CPP_KADAI\課題11\DEBUG\VC142.PDB
^D:\GC2A07\C++KADAI\CPP_KADAI\課題11\MAIN.CPP
D:\GC2A07\C++KADAI\CPP_KADAI\課題11\DEBUG\VC142.PDB
