^D:\VISUAL_STADIO\C++KADAI\CPP_KADAI\課題3\CIRCLECLASS.CPP|D:\VISUAL_STADIO\C++KADAI\CPP_KADAI\課題3\MAIN.CPP
D:\VISUAL_STADIO\C++KADAI\CPP_KADAI\課題3\X64\DEBUG\VC142.PDB
D:\VISUAL_STADIO\C++KADAI\CPP_KADAI\課題3\X64\DEBUG\VC142.IDB
D:\VISUAL_STADIO\C++KADAI\CPP_KADAI\課題3\X64\DEBUG\MAIN.OBJ
D:\VISUAL_STADIO\C++KADAI\CPP_KADAI\課題3\X64\DEBUG\CIRCLECLASS.OBJ
^D:\VISUAL_STADIO\C++KADAI\CPP_KADAI\課題3\CIRCLECLASS.CPP
D:\VISUAL_STADIO\C++KADAI\CPP_KADAI\課題3\X64\DEBUG\VC142.PDB
^D:\VISUAL_STADIO\C++KADAI\CPP_KADAI\課題3\MAIN.CPP
D:\VISUAL_STADIO\C++KADAI\CPP_KADAI\課題3\X64\DEBUG\VC142.PDB
