^D:\VISUAL_STADIO\C++KADAI\CPP_KADAI\課題3\X64\DEBUG\CIRCLECLASS.OBJ|D:\VISUAL_STADIO\C++KADAI\CPP_KADAI\課題3\X64\DEBUG\MAIN.OBJ
D:\VISUAL_STADIO\C++KADAI\CPP_KADAI\X64\DEBUG\課題3.ILK
D:\VISUAL_STADIO\C++KADAI\CPP_KADAI\X64\DEBUG\課題3.EXE
D:\VISUAL_STADIO\C++KADAI\CPP_KADAI\X64\DEBUG\課題3.PDB
