^D:\VISUAL_STADIO\C++KADAI\CPP_KADAI\課題3\X64\DEBUG\CIRCLECLASS.OBJ|D:\VISUAL_STADIO\C++KADAI\CPP_KADAI\課題3\X64\DEBUG\MAIN.OBJ
/OUT:"D:\VISUAL_STADIO\C++KADAI\CPP_KADAI\X64\DEBUG\課題3.EXE" /INCREMENTAL /NOLOGO KERNEL32.LIB USER32.LIB GDI32.LIB WINSPOOL.LIB COMDLG32.LIB ADVAPI32.LIB SHELL32.LIB OLE32.LIB OLEAUT32.LIB UUID.LIB ODBC32.LIB ODBCCP32.LIB /MANIFEST /MANIFESTUAC:"level='asInvoker' uiAccess='false'" /manifest:embed /DEBUG:FASTLINK /PDB:"D:\VISUAL_STADIO\C++KADAI\CPP_KADAI\X64\DEBUG\課題3.PDB" /SUBSYSTEM:CONSOLE /TLBID:1 /DYNAMICBASE /NXCOMPAT /IMPLIB:"D:\VISUAL_STADIO\C++KADAI\CPP_KADAI\X64\DEBUG\課題3.LIB" /MACHINE:X64 X64\DEBUG\CIRCLECLASS.OBJ
X64\DEBUG\MAIN.OBJ
