^D:\GC2A07\C++KADAI\CPP_KADAI\課題2\MAIN.CPP|D:\GC2A07\C++KADAI\CPP_KADAI\課題2\TRIANGLECLASS.CPP
D:\GC2A07\C++KADAI\CPP_KADAI\課題2\DEBUG\VC142.PDB
D:\GC2A07\C++KADAI\CPP_KADAI\課題2\DEBUG\VC142.IDB
D:\GC2A07\C++KADAI\CPP_KADAI\課題2\DEBUG\MAIN.OBJ
D:\GC2A07\C++KADAI\CPP_KADAI\課題2\DEBUG\TRIANGLECLASS.OBJ
^D:\GC2A07\C++KADAI\CPP_KADAI\課題2\TRIANGLECLASS.CPP
D:\GC2A07\C++KADAI\CPP_KADAI\課題2\DEBUG\VC142.PDB
^D:\GC2A07\C++KADAI\CPP_KADAI\課題2\MAIN.CPP
D:\GC2A07\C++KADAI\CPP_KADAI\課題2\DEBUG\VC142.PDB
