^D:\GC2A07\C++KADAI\CPP_KADAI\課題15\DEBUG\MAIN.OBJ|D:\GC2A07\C++KADAI\CPP_KADAI\課題15\DEBUG\SAMPLE.OBJ|D:\GC2A07\C++KADAI\CPP_KADAI\課題15\DEBUG\SUB.OBJ
D:\GC2A07\C++KADAI\CPP_KADAI\DEBUG\課題15.ILK
D:\GC2A07\C++KADAI\CPP_KADAI\DEBUG\課題15.EXE
D:\GC2A07\C++KADAI\CPP_KADAI\DEBUG\課題15.PDB
