^D:\GC2A07\C++KADAI\CPP_KADAI\課題1\MAIN.CPP|D:\GC2A07\C++KADAI\CPP_KADAI\課題1\SAMPLE.CPP
D:\GC2A07\C++KADAI\CPP_KADAI\課題1\DEBUG\VC142.PDB
D:\GC2A07\C++KADAI\CPP_KADAI\課題1\DEBUG\VC142.IDB
D:\GC2A07\C++KADAI\CPP_KADAI\課題1\DEBUG\MAIN.OBJ
D:\GC2A07\C++KADAI\CPP_KADAI\課題1\DEBUG\SAMPLE.OBJ
^D:\GC2A07\C++KADAI\CPP_KADAI\課題1\SAMPLE.CPP
D:\GC2A07\C++KADAI\CPP_KADAI\課題1\DEBUG\VC142.PDB
^D:\GC2A07\C++KADAI\CPP_KADAI\課題1\MAIN.CPP
D:\GC2A07\C++KADAI\CPP_KADAI\課題1\DEBUG\VC142.PDB
