^D:\VISUAL_STADIO\C++KADAI\CPP_KADAI\課題1\X64\DEBUG\MAIN.OBJ|D:\VISUAL_STADIO\C++KADAI\CPP_KADAI\課題1\X64\DEBUG\SAMPLE.OBJ
D:\VISUAL_STADIO\C++KADAI\CPP_KADAI\X64\DEBUG\課題1.ILK
D:\VISUAL_STADIO\C++KADAI\CPP_KADAI\X64\DEBUG\課題1.EXE
D:\VISUAL_STADIO\C++KADAI\CPP_KADAI\X64\DEBUG\課題1.PDB
